{
  "emission_rate": 1000,
  "emitter_lifetime": 1e99,
  "initial_direction": [
    0,
    -1
  ],
  "initial_spread": 0.1,
  "particle_color_graph": [
    [
      1.0,
      1.0,
      1.0,
      1.0
    ],
    [
      0.0,
      0.0,
      0.0,
      0.0
    ]
  ],
  "particle_size_graph": [
    1,
    0
  ],
  "rel_wrt_center": false,
  "emission_area": {
    "distance": [
      0.1,
      0.1
    ],
    "distribution": "Ellipse",
    "rotation": 0
  },
  "particle_initial_rotation": {
    "max": 0,
    "min": 0
  },
  "particle_initial_speed": {
    "max": 10,
    "min": 2
  },
  "particle_lifetime": {
    "max": 2,
    "min": 1
  },
  "particle_linear_acceleration": {
    "max": 0,
    "min": 0
  },
  "particle_radial_acceleration": {
    "max": 0,
    "min": 0
  },
  "particle_size": {
    "max": 1.0,
    "min": 0.5
  },
  "particle_spin": {
    "max": 2,
    "min": 2
  },
  "particle_tangential_acceleration": {
    "max": 1,
    "min": -1
  },
  "sprite": {
    "collision_rect": [
      -0.25,
      -0.25,
      0.25,
      0.25
    ],
    "origin": [
      0.5,
      0.5
    ],
    "path": "sprites/particle.png",
    "rotation_origin": [
      0.5,
      0.5
    ],
    "blend_mode": "Screen"
  }
}
